C:\Users\jokam\Nextcloud\Documents\Fax\Diplomski studij DRB\1. semestar\Robotska geometrija i robotski vid\LV7\LV7\Debug\vtkCommonCore-9.0d.dll
C:\Users\jokam\Nextcloud\Documents\Fax\Diplomski studij DRB\1. semestar\Robotska geometrija i robotski vid\LV7\LV7\Debug\vtksys-9.0d.dll
C:\Users\jokam\Nextcloud\Documents\Fax\Diplomski studij DRB\1. semestar\Robotska geometrija i robotski vid\LV7\LV7\Debug\vtkloguru-9.0d.dll
C:\Users\jokam\Nextcloud\Documents\Fax\Diplomski studij DRB\1. semestar\Robotska geometrija i robotski vid\LV7\LV7\Debug\vtkCommonDataModel-9.0d.dll
C:\Users\jokam\Nextcloud\Documents\Fax\Diplomski studij DRB\1. semestar\Robotska geometrija i robotski vid\LV7\LV7\Debug\vtkCommonTransforms-9.0d.dll
C:\Users\jokam\Nextcloud\Documents\Fax\Diplomski studij DRB\1. semestar\Robotska geometrija i robotski vid\LV7\LV7\Debug\vtkCommonMath-9.0d.dll
C:\Users\jokam\Nextcloud\Documents\Fax\Diplomski studij DRB\1. semestar\Robotska geometrija i robotski vid\LV7\LV7\Debug\vtkCommonMisc-9.0d.dll
C:\Users\jokam\Nextcloud\Documents\Fax\Diplomski studij DRB\1. semestar\Robotska geometrija i robotski vid\LV7\LV7\Debug\vtkCommonSystem-9.0d.dll
C:\Users\jokam\Nextcloud\Documents\Fax\Diplomski studij DRB\1. semestar\Robotska geometrija i robotski vid\LV7\LV7\Debug\vtkCommonExecutionModel-9.0d.dll
C:\Users\jokam\Nextcloud\Documents\Fax\Diplomski studij DRB\1. semestar\Robotska geometrija i robotski vid\LV7\LV7\Debug\vtkFiltersGeneral-9.0d.dll
C:\Users\jokam\Nextcloud\Documents\Fax\Diplomski studij DRB\1. semestar\Robotska geometrija i robotski vid\LV7\LV7\Debug\vtkFiltersCore-9.0d.dll
C:\Users\jokam\Nextcloud\Documents\Fax\Diplomski studij DRB\1. semestar\Robotska geometrija i robotski vid\LV7\LV7\Debug\vtkCommonComputationalGeometry-9.0d.dll
C:\Users\jokam\Nextcloud\Documents\Fax\Diplomski studij DRB\1. semestar\Robotska geometrija i robotski vid\LV7\LV7\Debug\vtkInteractionStyle-9.0d.dll
C:\Users\jokam\Nextcloud\Documents\Fax\Diplomski studij DRB\1. semestar\Robotska geometrija i robotski vid\LV7\LV7\Debug\vtkRenderingCore-9.0d.dll
C:\Users\jokam\Nextcloud\Documents\Fax\Diplomski studij DRB\1. semestar\Robotska geometrija i robotski vid\LV7\LV7\Debug\vtkCommonColor-9.0d.dll
C:\Users\jokam\Nextcloud\Documents\Fax\Diplomski studij DRB\1. semestar\Robotska geometrija i robotski vid\LV7\LV7\Debug\vtkFiltersGeometry-9.0d.dll
C:\Users\jokam\Nextcloud\Documents\Fax\Diplomski studij DRB\1. semestar\Robotska geometrija i robotski vid\LV7\LV7\Debug\vtkFiltersSources-9.0d.dll
C:\Users\jokam\Nextcloud\Documents\Fax\Diplomski studij DRB\1. semestar\Robotska geometrija i robotski vid\LV7\LV7\Debug\vtkFiltersExtraction-9.0d.dll
C:\Users\jokam\Nextcloud\Documents\Fax\Diplomski studij DRB\1. semestar\Robotska geometrija i robotski vid\LV7\LV7\Debug\vtkFiltersStatistics-9.0d.dll
C:\Users\jokam\Nextcloud\Documents\Fax\Diplomski studij DRB\1. semestar\Robotska geometrija i robotski vid\LV7\LV7\Debug\vtkImagingFourier-9.0d.dll
C:\Users\jokam\Nextcloud\Documents\Fax\Diplomski studij DRB\1. semestar\Robotska geometrija i robotski vid\LV7\LV7\Debug\vtkImagingCore-9.0d.dll
C:\Users\jokam\Nextcloud\Documents\Fax\Diplomski studij DRB\1. semestar\Robotska geometrija i robotski vid\LV7\LV7\Debug\vtkParallelDIY-9.0d.dll
C:\Users\jokam\Nextcloud\Documents\Fax\Diplomski studij DRB\1. semestar\Robotska geometrija i robotski vid\LV7\LV7\Debug\vtkIOXML-9.0d.dll
C:\Users\jokam\Nextcloud\Documents\Fax\Diplomski studij DRB\1. semestar\Robotska geometrija i robotski vid\LV7\LV7\Debug\vtkIOXMLParser-9.0d.dll
C:\Users\jokam\Nextcloud\Documents\Fax\Diplomski studij DRB\1. semestar\Robotska geometrija i robotski vid\LV7\LV7\Debug\vtkIOCore-9.0d.dll
C:\Users\jokam\Nextcloud\Documents\Fax\Diplomski studij DRB\1. semestar\Robotska geometrija i robotski vid\LV7\LV7\Debug\lz4d.dll
C:\Users\jokam\Nextcloud\Documents\Fax\Diplomski studij DRB\1. semestar\Robotska geometrija i robotski vid\LV7\LV7\Debug\lzmad.dll
C:\Users\jokam\Nextcloud\Documents\Fax\Diplomski studij DRB\1. semestar\Robotska geometrija i robotski vid\LV7\LV7\Debug\zlibd1.dll
C:\Users\jokam\Nextcloud\Documents\Fax\Diplomski studij DRB\1. semestar\Robotska geometrija i robotski vid\LV7\LV7\Debug\libexpatd.dll
C:\Users\jokam\Nextcloud\Documents\Fax\Diplomski studij DRB\1. semestar\Robotska geometrija i robotski vid\LV7\LV7\Debug\vtkParallelCore-9.0d.dll
C:\Users\jokam\Nextcloud\Documents\Fax\Diplomski studij DRB\1. semestar\Robotska geometrija i robotski vid\LV7\LV7\Debug\vtkIOLegacy-9.0d.dll
C:\Users\jokam\Nextcloud\Documents\Fax\Diplomski studij DRB\1. semestar\Robotska geometrija i robotski vid\LV7\LV7\Debug\vtkIOPLY-9.0d.dll
C:\Users\jokam\Nextcloud\Documents\Fax\Diplomski studij DRB\1. semestar\Robotska geometrija i robotski vid\LV7\LV7\Debug\vtkRenderingFreeType-9.0d.dll
C:\Users\jokam\Nextcloud\Documents\Fax\Diplomski studij DRB\1. semestar\Robotska geometrija i robotski vid\LV7\LV7\Debug\freetyped.dll
C:\Users\jokam\Nextcloud\Documents\Fax\Diplomski studij DRB\1. semestar\Robotska geometrija i robotski vid\LV7\LV7\Debug\bz2d.dll
C:\Users\jokam\Nextcloud\Documents\Fax\Diplomski studij DRB\1. semestar\Robotska geometrija i robotski vid\LV7\LV7\Debug\libpng16d.dll
C:\Users\jokam\Nextcloud\Documents\Fax\Diplomski studij DRB\1. semestar\Robotska geometrija i robotski vid\LV7\LV7\Debug\brotlidec.dll
C:\Users\jokam\Nextcloud\Documents\Fax\Diplomski studij DRB\1. semestar\Robotska geometrija i robotski vid\LV7\LV7\Debug\brotlicommon.dll
C:\Users\jokam\Nextcloud\Documents\Fax\Diplomski studij DRB\1. semestar\Robotska geometrija i robotski vid\LV7\LV7\Debug\vtkRenderingOpenGL2-9.0d.dll
C:\Users\jokam\Nextcloud\Documents\Fax\Diplomski studij DRB\1. semestar\Robotska geometrija i robotski vid\LV7\LV7\Debug\vtkRenderingUI-9.0d.dll
C:\Users\jokam\Nextcloud\Documents\Fax\Diplomski studij DRB\1. semestar\Robotska geometrija i robotski vid\LV7\LV7\Debug\glew32d.dll
