^C:\USERS\JOKAM\NEXTCLOUD\DOCUMENTS\FAX\DIPLOMSKI STUDIJ DRB\1. SEMESTAR\ROBOTSKA GEOMETRIJA I ROBOTSKI VID\LV4\LV4\PCH.CPP|C:\USERS\JOKAM\NEXTCLOUD\DOCUMENTS\FAX\DIPLOMSKI STUDIJ DRB\1. SEMESTAR\ROBOTSKA GEOMETRIJA I ROBOTSKI VID\LV4\LV4\SOURCE.CPP
C:\USERS\JOKAM\NEXTCLOUD\DOCUMENTS\FAX\DIPLOMSKI STUDIJ DRB\1. SEMESTAR\ROBOTSKA GEOMETRIJA I ROBOTSKI VID\LV4\LV4\DEBUG\VC142.PDB
C:\USERS\JOKAM\NEXTCLOUD\DOCUMENTS\FAX\DIPLOMSKI STUDIJ DRB\1. SEMESTAR\ROBOTSKA GEOMETRIJA I ROBOTSKI VID\LV4\LV4\DEBUG\VC142.IDB
C:\USERS\JOKAM\NEXTCLOUD\DOCUMENTS\FAX\DIPLOMSKI STUDIJ DRB\1. SEMESTAR\ROBOTSKA GEOMETRIJA I ROBOTSKI VID\LV4\LV4\DEBUG\PCH.OBJ
^C:\USERS\JOKAM\NEXTCLOUD\DOCUMENTS\FAX\DIPLOMSKI STUDIJ DRB\1. SEMESTAR\ROBOTSKA GEOMETRIJA I ROBOTSKI VID\LV4\LV4\PCH.CPP
C:\USERS\JOKAM\NEXTCLOUD\DOCUMENTS\FAX\DIPLOMSKI STUDIJ DRB\1. SEMESTAR\ROBOTSKA GEOMETRIJA I ROBOTSKI VID\LV4\LV4\DEBUG\PCH.OBJ
^C:\USERS\JOKAM\NEXTCLOUD\DOCUMENTS\FAX\DIPLOMSKI STUDIJ DRB\1. SEMESTAR\ROBOTSKA GEOMETRIJA I ROBOTSKI VID\LV4\LV4\SOURCE.CPP
C:\USERS\JOKAM\NEXTCLOUD\DOCUMENTS\FAX\DIPLOMSKI STUDIJ DRB\1. SEMESTAR\ROBOTSKA GEOMETRIJA I ROBOTSKI VID\LV4\LV4\DEBUG\VC142.PDB
C:\USERS\JOKAM\NEXTCLOUD\DOCUMENTS\FAX\DIPLOMSKI STUDIJ DRB\1. SEMESTAR\ROBOTSKA GEOMETRIJA I ROBOTSKI VID\LV4\LV4\DEBUG\VC142.IDB
C:\USERS\JOKAM\NEXTCLOUD\DOCUMENTS\FAX\DIPLOMSKI STUDIJ DRB\1. SEMESTAR\ROBOTSKA GEOMETRIJA I ROBOTSKI VID\LV4\LV4\DEBUG\SOURCE.OBJ
