^C:\USERS\JOKAM\NEXTCLOUD\DOCUMENTS\FAX\DIPLOMSKI STUDIJ DRB\1. SEMESTAR\ROBOTSKA GEOMETRIJA I ROBOTSKI VID\LV6\LV6\DEBUG\SOURCE.OBJ
C:\USERS\JOKAM\NEXTCLOUD\DOCUMENTS\FAX\DIPLOMSKI STUDIJ DRB\1. SEMESTAR\ROBOTSKA GEOMETRIJA I ROBOTSKI VID\LV6\LV6\DEBUG\LV6.EXE
C:\USERS\JOKAM\NEXTCLOUD\DOCUMENTS\FAX\DIPLOMSKI STUDIJ DRB\1. SEMESTAR\ROBOTSKA GEOMETRIJA I ROBOTSKI VID\LV6\LV6\DEBUG\LV6.ILK
C:\USERS\JOKAM\NEXTCLOUD\DOCUMENTS\FAX\DIPLOMSKI STUDIJ DRB\1. SEMESTAR\ROBOTSKA GEOMETRIJA I ROBOTSKI VID\LV6\LV6\DEBUG\LV6.PDB
