^C:\USERS\JOKAM\ONEDRIVE\DOCUMENTS\FAKS\RGRV\LV1\RGRV\X64\DEBUG\BODY.OBJ|C:\USERS\JOKAM\ONEDRIVE\DOCUMENTS\FAKS\RGRV\LV1\RGRV\X64\DEBUG\DISPLAY.OBJ|C:\USERS\JOKAM\ONEDRIVE\DOCUMENTS\FAKS\RGRV\LV1\RGRV\X64\DEBUG\LV1.OBJ
/OUT:"C:\USERS\JOKAM\ONEDRIVE\DOCUMENTS\FAKS\RGRV\LV1\X64\DEBUG\RGRV.EXE" /INCREMENTAL /NOLOGO /LIBPATH:"C:\USERS\JOKAM\ONEDRIVE\DOCUMENTS\FAKS\RGRV\INCLUDES\VTK-8.1.1_X64\LIB" /LIBPATH:"C:\USERS\JOKAM\ONEDRIVE\DOCUMENTS\FAKS\RGRV\INCLUDES\OPENCV-3.4.4_X64\VC14\LIB" /LIBPATH:"D:\PROGRAMMING\EXTERNAL\VTK-8.1.1_X64\LIB" /LIBPATH:"D:\PROGRAMMING\EXTERNAL\OPENCV-3.4.4_X64\VC14\LIB" "VTKVIEWSCORE-8.1.LIB" "VTKVIEWSINFOVIS-8.1.LIB" "VTKZLIB-8.1.LIB" "VTKALGLIB-8.1.LIB" "VTKCHARTSCORE-8.1.LIB" "VTKCOMMONCOLOR-8.1.LIB" "VTKCOMMONCOMPUTATIONALGEOMETRY-8.1.LIB" "VTKCOMMONCORE-8.1.LIB" "VTKCOMMONDATAMODEL-8.1.LIB" "VTKCOMMONEXECUTIONMODEL-8.1.LIB" "VTKCOMMONMATH-8.1.LIB" "VTKCOMMONMISC-8.1.LIB" "VTKCOMMONSYSTEM-8.1.LIB" "VTKCOMMONTRANSFORMS-8.1.LIB" "VTKDICOMPARSER-8.1.LIB" "VTKDOMAINSCHEMISTRY-8.1.LIB" "VTKDOMAINSCHEMISTRYOPENGL2-8.1.LIB" "VTKEXOIIC-8.1.LIB" "VTKEXPAT-8.1.LIB" "VTKFILTERSAMR-8.1.LIB" "VTKFILTERSCORE-8.1.LIB" "VTKFILTERSEXTRACTION-8.1.LIB" "VTKFILTERSFLOWPATHS-8.1.LIB" "VTKFILTERSGENERAL-8.1.LIB" "VTKFILTERSGENERIC-8.1.LIB" "VTKFILTERSGEOMETRY-8.1.LIB" "VTKFILTERSHYBRID-8.1.LIB" "VTKFILTERSHYPERTREE-8.1.LIB" "VTKFILTERSIMAGING-8.1.LIB" "VTKFILTERSMODELING-8.1.LIB" "VTKFILTERSPARALLEL-8.1.LIB" "VTKFILTERSPARALLELIMAGING-8.1.LIB" "VTKFILTERSPROGRAMMABLE-8.1.LIB" "VTKFILTERSSELECTION-8.1.LIB" "VTKFILTERSSMP-8.1.LIB" "VTKFILTERSSOURCES-8.1.LIB" "VTKFILTERSSTATISTICS-8.1.LIB" "VTKFILTERSTEXTURE-8.1.LIB" "VTKFILTERSVERDICT-8.1.LIB" "VTKFREETYPE-8.1.LIB" "VTKGEOVISCORE-8.1.LIB" "VTKGLEW-8.1.LIB" "VTKHDF5_HL-8.1.LIB" "VTKHDF5-8.1.LIB" "VTKIMAGINGCOLOR-8.1.LIB" "VTKIMAGINGCORE-8.1.LIB" "VTKIMAGINGFOURIER-8.1.LIB" "VTKIMAGINGGENERAL-8.1.LIB" "VTKIMAGINGHYBRID-8.1.LIB" "VTKIMAGINGMATH-8.1.LIB" "VTKIMAGINGMORPHOLOGICAL-8.1.LIB" "VTKIMAGINGSOURCES-8.1.LIB" "VTKIMAGINGSTATISTICS-8.1.LIB" "VTKIMAGINGSTENCIL-8.1.LIB" "VTKINFOVISCORE-8.1.LIB" "VTKINFOVISLAYOUT-8.1.LIB" "VTKINTERACTIONIMAGE-8.1.LIB" "VTKINTERACTIONSTYLE-8.1.LIB" "VTKINTERACTIONWIDGETS-8.1.LIB" "VTKIOAMR-8.1.LIB" "VTKIOCORE-8.1.LIB" "VTKIOENSIGHT-8.1.LIB" "VTKIOEXODUS-8.1.LIB" "VTKIOEXPORT-8.1.LIB" "VTKIOGEOMETRY-8.1.LIB" "VTKIOIMAGE-8.1.LIB" "VTKIOIMPORT-8.1.LIB" "VTKIOINFOVIS-8.1.LIB" "VTKIOLEGACY-8.1.LIB" "VTKIOLSDYNA-8.1.LIB" "VTKIOMINC-8.1.LIB" "VTKIOMOVIE-8.1.LIB" "VTKIONETCDF-8.1.LIB" "VTKIOPARALLEL-8.1.LIB" "VTKIOPARALLELXML-8.1.LIB" "VTKIOPLY-8.1.LIB" "VTKIOSQL-8.1.LIB" "VTKIOVIDEO-8.1.LIB" "VTKIOXML-8.1.LIB" "VTKIOXMLPARSER-8.1.LIB" "VTKJPEG-8.1.LIB" "VTKJSONCPP-8.1.LIB" "VTKLIBXML2-8.1.LIB" "VTKMETAIO-8.1.LIB" "VTKNETCDF-8.1.LIB" "VTKOGGTHEORA-8.1.LIB" "VTKPARALLELCORE-8.1.LIB" "VTKPNG-8.1.LIB" "VTKPROJ4-8.1.LIB" "VTKRENDERINGANNOTATION-8.1.LIB" "VTKRENDERINGCONTEXT2D-8.1.LIB" "VTKRENDERINGCONTEXTOPENGL2-8.1.LIB" "VTKRENDERINGCORE-8.1.LIB" "VTKRENDERINGFREETYPE-8.1.LIB" "VTKRENDERINGIMAGE-8.1.LIB" "VTKRENDERINGLABEL-8.1.LIB" "VTKRENDERINGLOD-8.1.LIB" "VTKRENDERINGOPENGL2-8.1.LIB" "VTKRENDERINGVOLUME-8.1.LIB" "VTKRENDERINGVOLUMEOPENGL2-8.1.LIB" "VTKSQLITE-8.1.LIB" "VTKSYS-8.1.LIB" "VTKTIFF-8.1.LIB" "VTKVERDICT-8.1.LIB" "VTKVIEWSCONTEXT2D-8.1.LIB" OPENGL32.LIB OPENCV_WORLD344D.LIB KERNEL32.LIB USER32.LIB GDI32.LIB WINSPOOL.LIB COMDLG32.LIB ADVAPI32.LIB SHELL32.LIB OLE32.LIB OLEAUT32.LIB UUID.LIB ODBC32.LIB ODBCCP32.LIB /MANIFEST /MANIFESTUAC:"level='asInvoker' uiAccess='false'" /manifest:embed /DEBUG:FASTLINK /PDB:"C:\USERS\JOKAM\ONEDRIVE\DOCUMENTS\FAKS\RGRV\LV1\X64\DEBUG\RGRV.PDB" /SUBSYSTEM:CONSOLE /TLBID:1 /DYNAMICBASE /NXCOMPAT /IMPLIB:"C:\USERS\JOKAM\ONEDRIVE\DOCUMENTS\FAKS\RGRV\LV1\X64\DEBUG\RGRV.LIB" /MACHINE:X64 X64\DEBUG\BODY.OBJ
X64\DEBUG\DISPLAY.OBJ
X64\DEBUG\LV1.OBJ
