﻿
C:\Users\jokam\Nextcloud\Documents\Fax\Diplomski studij DRB\1. semestar\Robotska geometrija i robotski vid\LV3 new\Debug\opencv_calib3dd.dll
C:\Users\jokam\Nextcloud\Documents\Fax\Diplomski studij DRB\1. semestar\Robotska geometrija i robotski vid\LV3 new\Debug\opencv_features2dd.dll
C:\Users\jokam\Nextcloud\Documents\Fax\Diplomski studij DRB\1. semestar\Robotska geometrija i robotski vid\LV3 new\Debug\opencv_flannd.dll
C:\Users\jokam\Nextcloud\Documents\Fax\Diplomski studij DRB\1. semestar\Robotska geometrija i robotski vid\LV3 new\Debug\opencv_cored.dll
C:\Users\jokam\Nextcloud\Documents\Fax\Diplomski studij DRB\1. semestar\Robotska geometrija i robotski vid\LV3 new\Debug\zlibd1.dll
C:\Users\jokam\Nextcloud\Documents\Fax\Diplomski studij DRB\1. semestar\Robotska geometrija i robotski vid\LV3 new\Debug\opencv_imgprocd.dll
C:\Users\jokam\Nextcloud\Documents\Fax\Diplomski studij DRB\1. semestar\Robotska geometrija i robotski vid\LV3 new\Debug\opencv_highguid.dll
C:\Users\jokam\Nextcloud\Documents\Fax\Diplomski studij DRB\1. semestar\Robotska geometrija i robotski vid\LV3 new\Debug\jpeg62.dll
C:\Users\jokam\Nextcloud\Documents\Fax\Diplomski studij DRB\1. semestar\Robotska geometrija i robotski vid\LV3 new\Debug\libpng16d.dll
C:\Users\jokam\Nextcloud\Documents\Fax\Diplomski studij DRB\1. semestar\Robotska geometrija i robotski vid\LV3 new\Debug\tiffd.dll
C:\Users\jokam\Nextcloud\Documents\Fax\Diplomski studij DRB\1. semestar\Robotska geometrija i robotski vid\LV3 new\Debug\lzmad.dll
